lab8
…
collect_metrics(model_params)

# A tibble: 60 × 8
   trees min_n .metric .estimator   mean     n std_err .config              
   <int> <int> <chr>   <chr>       <dbl> <int>   <dbl> <chr>                
 1     1    14 mae     standard   0.130     10 0.00341 Preprocessor1_Model01
 2     1    14 rmse    standard   0.194     10 0.00702 Preprocessor1_Model01
 3     1    14 rsq     standard   0.831     10 0.0232  Preprocessor1_Model01
 4   106    24 mae     standard   0.102     10 0.00432 Preprocessor1_Model02
 5   106    24 rmse    standard   0.144     10 0.00620 Preprocessor1_Model02
 6   106    24 rsq     standard   0.907     10 0.0106  Preprocessor1_Model02
 7   211    34 mae     standard   0.105     10 0.00421 Preprocessor1_Model03
 8   211    34 rmse    standard   0.147     10 0.00611 Preprocessor1_Model03
 9   211    34 rsq     standard   0.904     10 0.00968 Preprocessor1_Model03
10   316     6 mae     standard   0.0978    10 0.00449 Preprocessor1_Model04
# ℹ 50 more rows
…
